2016年4月手形サイトカレンダー
　,
支払日,サイト,仕入先名,月分,金額,〆日,期間
月末,60,金鶴食品製菓　株式会社,02,1076090,29,2016/2/01-2016/2/29
月末,60,株式会社　金城軒,02,666478,29,2016/2/01-2016/2/29
月末,60,株式会社　三祐,02,1401929,29,2016/2/01-2016/2/29
月末,60,昭和物産　株式会社,02,550650,29,2016/2/01-2016/2/29
月末,60,株式会社　ニイタカ,02,725835,29,2016/2/01-2016/2/29
月末,60,株式会社　ヤグチ,02,2891738,29,2016/2/01-2016/2/29
小計,,,,7312720
-----,-----,-----,-----,-----
5日,45,東亜商事　株式会社　米,02,0,20,2016/1/21-2016/2/20
5日,45,東亜商事　株式会社　醤油、生麺等,02,0,20,2016/1/21-2016/2/20
5日,45,東亜商事　株式会社　冷食,02,8218692,20,2016/1/21-2016/2/20
小計,,,,8218692
-----,-----,-----,-----,-----
20日,60,東亜商事　株式会社　食品,02,28603324,20,2016/1/21-2016/2/20
20日,80,株式会社　藤本商会本店　,01,1215624,31,2016/1/01-2016/1/31
小計,,,,29818948
-----,-----,-----,-----,-----
合計,,,,45350360
